﻿nr_matricula,ds_nome
00027318,ADALBERTO JOSE RODRIGUES FILHO
00012070,ADRIANO DE MESQUITA CARNEIRO
00019968,AGNALDO RODRIGUES PEREIRA
00023234,AIDA OLIVEIRA RIBEIRO
00027011,ALEXANDRE MAGNO DE RESENDE OLIVEIRA
00008870,AMAURI PINTO FERREIRA
00012989,ANGELA DE LOURDES RODRIGUES
00009316,ANGELIQUE RIBEIRO DE SOUZA
00018465,ANTONIO BELASQUE FILHO
00020412,ANTONIO LEITE DE PADUA
00010801,AQUILES DA MOTA JARDIM NETO
00023192,ATILA ANDRADE DE CASTRO
20115998,BRUNO TERRA DIAS
00026997,CARLOS DONIZETTI FERREIRA DA SILVA
00024430,CARLOS FREDERICO BRAGA DA SILVA
00023242,CARLOS MARCIO DE SOUZA MACEDO
00019711,CARLOS SALVADOR CARVALHO DE MESQUITA
00026716,CHRISTIAN GOMES LIMA
00027169,CLAUDIA APARECIDA COIMBRA ALVES
00024075,CLAUDIA COSTA CRUZ TEIXEIRA
00027995,CLAUDIA REGINA MACEGOSSO
00023556,CLAYTON ROSA DE RESENDE
00024950,DANIEL DOURADO PACHECO
00023259,DANIELLE CHRISTIANE COSTA MACHADO DE CASTRO COTTA
00019901,DELVAN BARCELOS JÚNIOR
00027078,DENIA FRANCISCA CORGOSINHO TABORDA
1206-2,EDSON DE ALMEIDA CAMPOS JUNIOR
00027581,EDUARDO HENRIQUE DE OLIVEIRA RAMIRO
00028175,EDUARDO MARQUES LOTT
00026807,EDUARDO VELOSO LAGO
00026948,ELIAS CHARBIL ABDOU OBEID
00020099,ELITO BATISTA DE ALMEIDA
00023176,FABIANA DA CUNHA PASQUA
00054635,FERNANDA BAETA VICENTE
00013748,FERNANDO DE VASCONCELOS LINS
00011957,GENIL ANACLETO RODRIGUES FILHO
00019778,GERALDO CARLOS CAMPOS
00023309,GERALDO CLARET DE ARANTES
00012146,GERALDO DAVID CAMARGO
00022962,GILSON SOARES LEMES
00031880,GUILHERME LIMA NOGUEIRA DA SILVA
00027268,GUSTAVO HENRIQUE HAUCK GUIMARAES
00020511,IANDARA PEIXOTO NOGUEIRA
00026674,IGOR QUEIROZ
27789,JANETE GOMES MOREIRA
00015560,JAQUELINE CALABRIA ALBUQUERQUE
00018374,JEFERSON MARIA
00033415,JOAO LUIZ NASCIMENTO DE OLIVEIRA
2796-1,JOAQUIM MORAIS JUNIOR
00020404,JORGE PAULO DOS SANTOS
00020453,JOSE EUSTAQUIO LUCAS PEREIRA
00019935,JOSE MAURICIO CANTARINO VILLELA
00020347,JOSE RICARDO DOS SANTOS DE FREITAS VERAS
00023275,LAURO SERGIO LEAL
00022970,LILIAN MACIEL SANTOS
00011544,LLEWELLYN DAVIES ANTONIO MEDINA
00032086,LUIS FERNANDO DE OLIVEIRA BENFATTI
00018549,LUIZ GONZAGA SILVEIRA SOARES
00023291,LUZIA DIVINA DE PAULA PEIXOTO
00004549,MAGID NAUEF LAUAR
00019836,MANOEL DOS REIS MORAIS
00023408,MARCELO DA CRUZ TRIGUEIRO
00015479,MARCO ANTONIO DE MELO
00019950,MARCO ANTONIO FEITAL LEITE
00023739,MARCO AURELIO CHAVES ALBUQUERQUE
00013664,MARCO AURELIO FERRARA MARCOLINO
00028043,MARCOS ANTONIO DA SILVA
00025106,MARIA APARECIDA CONSENTINO AGOSTINI
568-6,MARIA CRISTINA CUNHA CARVALHAIS
00015032,MARIA DA GLORIA REIS
00015248,MARIA LUIZA SANTANA ASSUNCAO
00023713,MAURA ANGÉLICA DE OLIVEIRA FERREIRA
00018481,MAURICIO PINTO COELHO FILHO
1353-2,MAURICIO PINTO FERREIRA
15289,MAURICIO TORRES SOARES
00025288,MAURO PENA ROCHA
00026849,MELISSA PINHEIRO COSTA LAGE
00023333,MICHEL CURI E SILVA
00006916,MOEMA MIRANDA GONCALVES
00005199,MONICA LIBANIO ROCHA BRETAS
00033407,PAULA MURCA MACHADO ROCHA MOURA
00013623,PAULO DE TARSO TAMBURINI SOUZA
00033381,PAULO ROBERTO MAIA ALVES FERREIRA
00010975,PAULO ROGERIO DE SOUZA ABRANTES
00015065,PEDRO ALEIXO NETO
00027342,RAQUEL BHERING NOGUEIRA
00022426,RENAN CHAVES CARREIRA MACHADO
00026609,RENATA BOMFIM PACHECO
00015313,RENATO LUIS DRESCH
00020073,RENATO LUIZ FARACO
00026708,RICARDO TORRES OLIVEIRA
00027003,RICHARD FERNANDO DA SILVA
00027144,ROBERT LOPES DE ALMEIDA
00031963,ROBERTA CHAVES SOARES
00010876,RONALDO BATISTA DE ALMEIDA
00023507,ROSIMERE DAS GRACAS DO COUTO
00023754,RUI DE ALMEIDA MAGALHAES
00025056,SEBASTIAO PEREIRA DOS SANTOS NETO
00012229,SERGIO ANDRE DA FONSECA XAVIER
00023440,SERGIO HENRIQUE CORDEIRO CALDAS FERNANDES
00020263,SIMONE LEMOS BOTONI
00027680,SIMONE SARAIVA DE ABREU ABRAS
00015586,SORAYA HASSAN BAZ LAUAR
00028142,VANIA FERNANDES SOALHEIRO
00027748,WALESKA OLIVEIRA MORAIS
00020461,WAUNER BATISTA FERREIRA MACHADO
00020248,WILSON ALMEIDA BENEVIDES
00015578,YEDA MONTEIRO ATHIAS
